{
    "device": "alsa_input.pci-0000_00_1f.3-platform-skl_hda_dsp_generic.HiFi__hw_sofhdadsp__source",
    "device-description": "Tiger Lake-LP Smart Sound Technology Audio Controller Headphones Stereo Microphone",
    "device-profile": "[In] Mic1",
    "preset-name": "ANC"
}
